25 25
3 7 3
2 6 5
2 5 6
2 4 7
2 3 8
2 5 2 4
7 1 5
5 7
1 5 1 3 2
4 2 1 1 5
2 2 2 1 1 1 4
3 2 2 1 1 1 3
3 2 1 4 3
4 1 8
5 1 7
5 1 7
6 1 6
7 1 5
7 1 5
8 1 4
9 1 3
9 1 3
10 1 2
11 1 1
13
7 17
7 16
1 1 1 14
1 1 12
1 1 11
1 1 9
1 2 1 3 8
2 1 1 3 6
3 1 2 5
4 1 1 3 3
6 1 3 2
5 1 1
5 19
1
2 16
1 1 11
1 1 1 10
2 1 11
3 2 1 6
4 1 1 4
6 1 7
6 1 5
6 2 3
5 2 1
1
